%YAML 1.1
%TAG !u! tag:unity3d.com,2011:
--- !u!1001 &5498862590945222279
PrefabInstance:
  m_ObjectHideFlags: 0
  serializedVersion: 2
  m_Modification:
    m_TransformParent: {fileID: 0}
    m_Modifications:
    - target: {fileID: 8537324009329152261, guid: 9e5c028152ece2a43bd1a3c4a929cbf3,
        type: 3}
      propertyPath: m_Name
      value: green_tank_head Variant
      objectReference: {fileID: 0}
    - target: {fileID: 7953367084847937318, guid: 9e5c028152ece2a43bd1a3c4a929cbf3,
        type: 3}
      propertyPath: m_LocalPosition.x
      value: 0
      objectReference: {fileID: 0}
    - target: {fileID: 7953367084847937318, guid: 9e5c028152ece2a43bd1a3c4a929cbf3,
        type: 3}
      propertyPath: m_LocalPosition.y
      value: 0
      objectReference: {fileID: 0}
    - target: {fileID: 7953367084847937318, guid: 9e5c028152ece2a43bd1a3c4a929cbf3,
        type: 3}
      propertyPath: m_LocalPosition.z
      value: 0
      objectReference: {fileID: 0}
    - target: {fileID: 7953367084847937318, guid: 9e5c028152ece2a43bd1a3c4a929cbf3,
        type: 3}
      propertyPath: m_LocalRotation.x
      value: 0
      objectReference: {fileID: 0}
    - target: {fileID: 7953367084847937318, guid: 9e5c028152ece2a43bd1a3c4a929cbf3,
        type: 3}
      propertyPath: m_LocalRotation.y
      value: 0
      objectReference: {fileID: 0}
    - target: {fileID: 7953367084847937318, guid: 9e5c028152ece2a43bd1a3c4a929cbf3,
        type: 3}
      propertyPath: m_LocalRotation.z
      value: 0
      objectReference: {fileID: 0}
    - target: {fileID: 7953367084847937318, guid: 9e5c028152ece2a43bd1a3c4a929cbf3,
        type: 3}
      propertyPath: m_LocalRotation.w
      value: 1
      objectReference: {fileID: 0}
    - target: {fileID: 7953367084847937318, guid: 9e5c028152ece2a43bd1a3c4a929cbf3,
        type: 3}
      propertyPath: m_RootOrder
      value: 0
      objectReference: {fileID: 0}
    - target: {fileID: 7953367084847937318, guid: 9e5c028152ece2a43bd1a3c4a929cbf3,
        type: 3}
      propertyPath: m_LocalEulerAnglesHint.x
      value: 0
      objectReference: {fileID: 0}
    - target: {fileID: 7953367084847937318, guid: 9e5c028152ece2a43bd1a3c4a929cbf3,
        type: 3}
      propertyPath: m_LocalEulerAnglesHint.y
      value: 0
      objectReference: {fileID: 0}
    - target: {fileID: 7953367084847937318, guid: 9e5c028152ece2a43bd1a3c4a929cbf3,
        type: 3}
      propertyPath: m_LocalEulerAnglesHint.z
      value: 0
      objectReference: {fileID: 0}
    m_RemovedComponents: []
  m_SourcePrefab: {fileID: 100100000, guid: 9e5c028152ece2a43bd1a3c4a929cbf3, type: 3}
