%YAML 1.1
%TAG !u! tag:unity3d.com,2011:
--- !u!1001 &6225529542313233254
PrefabInstance:
  m_ObjectHideFlags: 0
  serializedVersion: 2
  m_Modification:
    m_TransformParent: {fileID: 0}
    m_Modifications:
    - target: {fileID: 6826425909816218768, guid: 007fff9b4591af548a2f474edad036d8,
        type: 3}
      propertyPath: m_Name
      value: blue_ufo_head Variant
      objectReference: {fileID: 0}
    - target: {fileID: 4729642403061770097, guid: 007fff9b4591af548a2f474edad036d8,
        type: 3}
      propertyPath: m_LocalPosition.x
      value: 0
      objectReference: {fileID: 0}
    - target: {fileID: 4729642403061770097, guid: 007fff9b4591af548a2f474edad036d8,
        type: 3}
      propertyPath: m_LocalPosition.y
      value: 0
      objectReference: {fileID: 0}
    - target: {fileID: 4729642403061770097, guid: 007fff9b4591af548a2f474edad036d8,
        type: 3}
      propertyPath: m_LocalPosition.z
      value: 0
      objectReference: {fileID: 0}
    - target: {fileID: 4729642403061770097, guid: 007fff9b4591af548a2f474edad036d8,
        type: 3}
      propertyPath: m_LocalRotation.x
      value: 0
      objectReference: {fileID: 0}
    - target: {fileID: 4729642403061770097, guid: 007fff9b4591af548a2f474edad036d8,
        type: 3}
      propertyPath: m_LocalRotation.y
      value: 0
      objectReference: {fileID: 0}
    - target: {fileID: 4729642403061770097, guid: 007fff9b4591af548a2f474edad036d8,
        type: 3}
      propertyPath: m_LocalRotation.z
      value: 0
      objectReference: {fileID: 0}
    - target: {fileID: 4729642403061770097, guid: 007fff9b4591af548a2f474edad036d8,
        type: 3}
      propertyPath: m_LocalRotation.w
      value: 1
      objectReference: {fileID: 0}
    - target: {fileID: 4729642403061770097, guid: 007fff9b4591af548a2f474edad036d8,
        type: 3}
      propertyPath: m_RootOrder
      value: 0
      objectReference: {fileID: 0}
    - target: {fileID: 4729642403061770097, guid: 007fff9b4591af548a2f474edad036d8,
        type: 3}
      propertyPath: m_LocalEulerAnglesHint.x
      value: 0
      objectReference: {fileID: 0}
    - target: {fileID: 4729642403061770097, guid: 007fff9b4591af548a2f474edad036d8,
        type: 3}
      propertyPath: m_LocalEulerAnglesHint.y
      value: 0
      objectReference: {fileID: 0}
    - target: {fileID: 4729642403061770097, guid: 007fff9b4591af548a2f474edad036d8,
        type: 3}
      propertyPath: m_LocalEulerAnglesHint.z
      value: 0
      objectReference: {fileID: 0}
    m_RemovedComponents: []
  m_SourcePrefab: {fileID: 100100000, guid: 007fff9b4591af548a2f474edad036d8, type: 3}
