%YAML 1.1
%TAG !u! tag:unity3d.com,2011:
--- !u!1001 &4879182227537761366
PrefabInstance:
  m_ObjectHideFlags: 0
  serializedVersion: 2
  m_Modification:
    m_TransformParent: {fileID: 0}
    m_Modifications:
    - target: {fileID: 5928546202835714982, guid: 6ca8740cce9375745840646612f7e858,
        type: 3}
      propertyPath: m_Name
      value: virus_inf_head Variant
      objectReference: {fileID: 0}
    - target: {fileID: 2444561727923461611, guid: 6ca8740cce9375745840646612f7e858,
        type: 3}
      propertyPath: m_LocalPosition.x
      value: 0
      objectReference: {fileID: 0}
    - target: {fileID: 2444561727923461611, guid: 6ca8740cce9375745840646612f7e858,
        type: 3}
      propertyPath: m_LocalPosition.y
      value: 0
      objectReference: {fileID: 0}
    - target: {fileID: 2444561727923461611, guid: 6ca8740cce9375745840646612f7e858,
        type: 3}
      propertyPath: m_LocalPosition.z
      value: 0
      objectReference: {fileID: 0}
    - target: {fileID: 2444561727923461611, guid: 6ca8740cce9375745840646612f7e858,
        type: 3}
      propertyPath: m_LocalRotation.x
      value: 0
      objectReference: {fileID: 0}
    - target: {fileID: 2444561727923461611, guid: 6ca8740cce9375745840646612f7e858,
        type: 3}
      propertyPath: m_LocalRotation.y
      value: 0
      objectReference: {fileID: 0}
    - target: {fileID: 2444561727923461611, guid: 6ca8740cce9375745840646612f7e858,
        type: 3}
      propertyPath: m_LocalRotation.z
      value: 0
      objectReference: {fileID: 0}
    - target: {fileID: 2444561727923461611, guid: 6ca8740cce9375745840646612f7e858,
        type: 3}
      propertyPath: m_LocalRotation.w
      value: 1
      objectReference: {fileID: 0}
    - target: {fileID: 2444561727923461611, guid: 6ca8740cce9375745840646612f7e858,
        type: 3}
      propertyPath: m_RootOrder
      value: 0
      objectReference: {fileID: 0}
    - target: {fileID: 2444561727923461611, guid: 6ca8740cce9375745840646612f7e858,
        type: 3}
      propertyPath: m_LocalEulerAnglesHint.x
      value: 0
      objectReference: {fileID: 0}
    - target: {fileID: 2444561727923461611, guid: 6ca8740cce9375745840646612f7e858,
        type: 3}
      propertyPath: m_LocalEulerAnglesHint.y
      value: 0
      objectReference: {fileID: 0}
    - target: {fileID: 2444561727923461611, guid: 6ca8740cce9375745840646612f7e858,
        type: 3}
      propertyPath: m_LocalEulerAnglesHint.z
      value: 0
      objectReference: {fileID: 0}
    - target: {fileID: 2444561727923461611, guid: 6ca8740cce9375745840646612f7e858,
        type: 3}
      propertyPath: m_LocalScale.x
      value: 0.03
      objectReference: {fileID: 0}
    - target: {fileID: 2444561727923461611, guid: 6ca8740cce9375745840646612f7e858,
        type: 3}
      propertyPath: m_LocalScale.y
      value: 0.03
      objectReference: {fileID: 0}
    - target: {fileID: 2444561727923461611, guid: 6ca8740cce9375745840646612f7e858,
        type: 3}
      propertyPath: m_LocalScale.z
      value: 0.03
      objectReference: {fileID: 0}
    m_RemovedComponents: []
  m_SourcePrefab: {fileID: 100100000, guid: 6ca8740cce9375745840646612f7e858, type: 3}
