%YAML 1.1
%TAG !u! tag:unity3d.com,2011:
--- !u!1001 &2977113492477511484
PrefabInstance:
  m_ObjectHideFlags: 0
  serializedVersion: 2
  m_Modification:
    m_TransformParent: {fileID: 0}
    m_Modifications:
    - target: {fileID: 6254097536850923396, guid: 080f315eb07f972429bc85f31a3c26fc,
        type: 3}
      propertyPath: m_Name
      value: red_ufo_head Variant
      objectReference: {fileID: 0}
    - target: {fileID: 6821666159966133543, guid: 080f315eb07f972429bc85f31a3c26fc,
        type: 3}
      propertyPath: m_LocalPosition.x
      value: 0
      objectReference: {fileID: 0}
    - target: {fileID: 6821666159966133543, guid: 080f315eb07f972429bc85f31a3c26fc,
        type: 3}
      propertyPath: m_LocalPosition.y
      value: 0
      objectReference: {fileID: 0}
    - target: {fileID: 6821666159966133543, guid: 080f315eb07f972429bc85f31a3c26fc,
        type: 3}
      propertyPath: m_LocalPosition.z
      value: 0
      objectReference: {fileID: 0}
    - target: {fileID: 6821666159966133543, guid: 080f315eb07f972429bc85f31a3c26fc,
        type: 3}
      propertyPath: m_LocalRotation.x
      value: 0
      objectReference: {fileID: 0}
    - target: {fileID: 6821666159966133543, guid: 080f315eb07f972429bc85f31a3c26fc,
        type: 3}
      propertyPath: m_LocalRotation.y
      value: 0
      objectReference: {fileID: 0}
    - target: {fileID: 6821666159966133543, guid: 080f315eb07f972429bc85f31a3c26fc,
        type: 3}
      propertyPath: m_LocalRotation.z
      value: 0
      objectReference: {fileID: 0}
    - target: {fileID: 6821666159966133543, guid: 080f315eb07f972429bc85f31a3c26fc,
        type: 3}
      propertyPath: m_LocalRotation.w
      value: 1
      objectReference: {fileID: 0}
    - target: {fileID: 6821666159966133543, guid: 080f315eb07f972429bc85f31a3c26fc,
        type: 3}
      propertyPath: m_RootOrder
      value: 0
      objectReference: {fileID: 0}
    - target: {fileID: 6821666159966133543, guid: 080f315eb07f972429bc85f31a3c26fc,
        type: 3}
      propertyPath: m_LocalEulerAnglesHint.x
      value: 0
      objectReference: {fileID: 0}
    - target: {fileID: 6821666159966133543, guid: 080f315eb07f972429bc85f31a3c26fc,
        type: 3}
      propertyPath: m_LocalEulerAnglesHint.y
      value: 0
      objectReference: {fileID: 0}
    - target: {fileID: 6821666159966133543, guid: 080f315eb07f972429bc85f31a3c26fc,
        type: 3}
      propertyPath: m_LocalEulerAnglesHint.z
      value: 0
      objectReference: {fileID: 0}
    m_RemovedComponents: []
  m_SourcePrefab: {fileID: 100100000, guid: 080f315eb07f972429bc85f31a3c26fc, type: 3}
