%YAML 1.1
%TAG !u! tag:unity3d.com,2011:
--- !u!1001 &3417988412649787309
PrefabInstance:
  m_ObjectHideFlags: 0
  serializedVersion: 2
  m_Modification:
    m_TransformParent: {fileID: 0}
    m_Modifications:
    - target: {fileID: 59116832232125214, guid: 699ebb376353b7644a040dcdcd5e11f4,
        type: 3}
      propertyPath: m_Name
      value: red_inf_legs Variant
      objectReference: {fileID: 0}
    - target: {fileID: 7909213216230887470, guid: 699ebb376353b7644a040dcdcd5e11f4,
        type: 3}
      propertyPath: m_LocalPosition.x
      value: 0
      objectReference: {fileID: 0}
    - target: {fileID: 7909213216230887470, guid: 699ebb376353b7644a040dcdcd5e11f4,
        type: 3}
      propertyPath: m_LocalPosition.y
      value: 0
      objectReference: {fileID: 0}
    - target: {fileID: 7909213216230887470, guid: 699ebb376353b7644a040dcdcd5e11f4,
        type: 3}
      propertyPath: m_LocalPosition.z
      value: 0
      objectReference: {fileID: 0}
    - target: {fileID: 7909213216230887470, guid: 699ebb376353b7644a040dcdcd5e11f4,
        type: 3}
      propertyPath: m_LocalRotation.x
      value: 0
      objectReference: {fileID: 0}
    - target: {fileID: 7909213216230887470, guid: 699ebb376353b7644a040dcdcd5e11f4,
        type: 3}
      propertyPath: m_LocalRotation.y
      value: 0
      objectReference: {fileID: 0}
    - target: {fileID: 7909213216230887470, guid: 699ebb376353b7644a040dcdcd5e11f4,
        type: 3}
      propertyPath: m_LocalRotation.z
      value: 0
      objectReference: {fileID: 0}
    - target: {fileID: 7909213216230887470, guid: 699ebb376353b7644a040dcdcd5e11f4,
        type: 3}
      propertyPath: m_LocalRotation.w
      value: 1
      objectReference: {fileID: 0}
    - target: {fileID: 7909213216230887470, guid: 699ebb376353b7644a040dcdcd5e11f4,
        type: 3}
      propertyPath: m_RootOrder
      value: 0
      objectReference: {fileID: 0}
    - target: {fileID: 7909213216230887470, guid: 699ebb376353b7644a040dcdcd5e11f4,
        type: 3}
      propertyPath: m_LocalEulerAnglesHint.x
      value: 0
      objectReference: {fileID: 0}
    - target: {fileID: 7909213216230887470, guid: 699ebb376353b7644a040dcdcd5e11f4,
        type: 3}
      propertyPath: m_LocalEulerAnglesHint.y
      value: 0
      objectReference: {fileID: 0}
    - target: {fileID: 7909213216230887470, guid: 699ebb376353b7644a040dcdcd5e11f4,
        type: 3}
      propertyPath: m_LocalEulerAnglesHint.z
      value: 0
      objectReference: {fileID: 0}
    m_RemovedComponents: []
  m_SourcePrefab: {fileID: 100100000, guid: 699ebb376353b7644a040dcdcd5e11f4, type: 3}
