%YAML 1.1
%TAG !u! tag:unity3d.com,2011:
--- !u!1001 &4969476739026300757
PrefabInstance:
  m_ObjectHideFlags: 0
  serializedVersion: 2
  m_Modification:
    m_TransformParent: {fileID: 0}
    m_Modifications:
    - target: {fileID: 8137317994858105389, guid: db74791b57539ef49b02beea1b2f06e0,
        type: 3}
      propertyPath: m_Name
      value: red_tank_head Variant
      objectReference: {fileID: 0}
    - target: {fileID: 1225368630092895445, guid: db74791b57539ef49b02beea1b2f06e0,
        type: 3}
      propertyPath: m_LocalPosition.x
      value: 0
      objectReference: {fileID: 0}
    - target: {fileID: 1225368630092895445, guid: db74791b57539ef49b02beea1b2f06e0,
        type: 3}
      propertyPath: m_LocalPosition.y
      value: 0
      objectReference: {fileID: 0}
    - target: {fileID: 1225368630092895445, guid: db74791b57539ef49b02beea1b2f06e0,
        type: 3}
      propertyPath: m_LocalPosition.z
      value: 0
      objectReference: {fileID: 0}
    - target: {fileID: 1225368630092895445, guid: db74791b57539ef49b02beea1b2f06e0,
        type: 3}
      propertyPath: m_LocalRotation.x
      value: 0
      objectReference: {fileID: 0}
    - target: {fileID: 1225368630092895445, guid: db74791b57539ef49b02beea1b2f06e0,
        type: 3}
      propertyPath: m_LocalRotation.y
      value: 0
      objectReference: {fileID: 0}
    - target: {fileID: 1225368630092895445, guid: db74791b57539ef49b02beea1b2f06e0,
        type: 3}
      propertyPath: m_LocalRotation.z
      value: 0
      objectReference: {fileID: 0}
    - target: {fileID: 1225368630092895445, guid: db74791b57539ef49b02beea1b2f06e0,
        type: 3}
      propertyPath: m_LocalRotation.w
      value: 1
      objectReference: {fileID: 0}
    - target: {fileID: 1225368630092895445, guid: db74791b57539ef49b02beea1b2f06e0,
        type: 3}
      propertyPath: m_RootOrder
      value: 0
      objectReference: {fileID: 0}
    - target: {fileID: 1225368630092895445, guid: db74791b57539ef49b02beea1b2f06e0,
        type: 3}
      propertyPath: m_LocalEulerAnglesHint.x
      value: 0
      objectReference: {fileID: 0}
    - target: {fileID: 1225368630092895445, guid: db74791b57539ef49b02beea1b2f06e0,
        type: 3}
      propertyPath: m_LocalEulerAnglesHint.y
      value: 0
      objectReference: {fileID: 0}
    - target: {fileID: 1225368630092895445, guid: db74791b57539ef49b02beea1b2f06e0,
        type: 3}
      propertyPath: m_LocalEulerAnglesHint.z
      value: 0
      objectReference: {fileID: 0}
    - target: {fileID: 4408679639646036218, guid: db74791b57539ef49b02beea1b2f06e0,
        type: 3}
      propertyPath: m_LocalRotation.x
      value: 0
      objectReference: {fileID: 0}
    - target: {fileID: 4408679639646036218, guid: db74791b57539ef49b02beea1b2f06e0,
        type: 3}
      propertyPath: m_LocalRotation.y
      value: 0
      objectReference: {fileID: 0}
    - target: {fileID: 4408679639646036218, guid: db74791b57539ef49b02beea1b2f06e0,
        type: 3}
      propertyPath: m_LocalRotation.z
      value: 0.039332647
      objectReference: {fileID: 0}
    - target: {fileID: 4408679639646036218, guid: db74791b57539ef49b02beea1b2f06e0,
        type: 3}
      propertyPath: m_LocalRotation.w
      value: -0.9992262
      objectReference: {fileID: 0}
    - target: {fileID: 4408679639646036218, guid: db74791b57539ef49b02beea1b2f06e0,
        type: 3}
      propertyPath: m_LocalPosition.x
      value: -0.76296633
      objectReference: {fileID: 0}
    - target: {fileID: 4408679639646036218, guid: db74791b57539ef49b02beea1b2f06e0,
        type: 3}
      propertyPath: m_LocalPosition.y
      value: 4.647792
      objectReference: {fileID: 0}
    - target: {fileID: 4731075999504277233, guid: db74791b57539ef49b02beea1b2f06e0,
        type: 3}
      propertyPath: m_LocalPosition.x
      value: 1.2550029
      objectReference: {fileID: 0}
    - target: {fileID: 4731075999504277233, guid: db74791b57539ef49b02beea1b2f06e0,
        type: 3}
      propertyPath: m_LocalPosition.y
      value: 2.1749978
      objectReference: {fileID: 0}
    - target: {fileID: 5873045433627000378, guid: db74791b57539ef49b02beea1b2f06e0,
        type: 3}
      propertyPath: m_Sprite
      value: 
      objectReference: {fileID: 21300000, guid: 928054f82d79c984c9c8728e701e8d90,
        type: 3}
    - target: {fileID: 5873045433627000378, guid: db74791b57539ef49b02beea1b2f06e0,
        type: 3}
      propertyPath: m_Size.x
      value: 7.07
      objectReference: {fileID: 0}
    - target: {fileID: 5873045433627000378, guid: db74791b57539ef49b02beea1b2f06e0,
        type: 3}
      propertyPath: m_Size.y
      value: 5.21
      objectReference: {fileID: 0}
    - target: {fileID: 5873045433627000378, guid: db74791b57539ef49b02beea1b2f06e0,
        type: 3}
      propertyPath: m_WasSpriteAssigned
      value: 1
      objectReference: {fileID: 0}
    m_RemovedComponents: []
  m_SourcePrefab: {fileID: 100100000, guid: db74791b57539ef49b02beea1b2f06e0, type: 3}
