%YAML 1.1
%TAG !u! tag:unity3d.com,2011:
--- !u!1001 &5872340561881390487
PrefabInstance:
  m_ObjectHideFlags: 0
  serializedVersion: 2
  m_Modification:
    m_TransformParent: {fileID: 0}
    m_Modifications:
    - target: {fileID: 5341999300212151003, guid: ddd818e3f9ed437459aae35190c40a20,
        type: 3}
      propertyPath: m_Name
      value: Tablero
      objectReference: {fileID: 0}
    - target: {fileID: 5341999300212151003, guid: ddd818e3f9ed437459aae35190c40a20,
        type: 3}
      propertyPath: m_IsActive
      value: 1
      objectReference: {fileID: 0}
    - target: {fileID: 5341794519748668705, guid: ddd818e3f9ed437459aae35190c40a20,
        type: 3}
      propertyPath: m_Name
      value: casilla05
      objectReference: {fileID: 0}
    - target: {fileID: 5341447143542123971, guid: ddd818e3f9ed437459aae35190c40a20,
        type: 3}
      propertyPath: m_TagString
      value: factory
      objectReference: {fileID: 0}
    - target: {fileID: 5341995074420577235, guid: ddd818e3f9ed437459aae35190c40a20,
        type: 3}
      propertyPath: m_TagString
      value: factory
      objectReference: {fileID: 0}
    - target: {fileID: 5341518219047653779, guid: ddd818e3f9ed437459aae35190c40a20,
        type: 3}
      propertyPath: m_TagString
      value: factory
      objectReference: {fileID: 0}
    - target: {fileID: 5341901084140304805, guid: ddd818e3f9ed437459aae35190c40a20,
        type: 3}
      propertyPath: m_TagString
      value: factory
      objectReference: {fileID: 0}
    - target: {fileID: 5344230546021196627, guid: ddd818e3f9ed437459aae35190c40a20,
        type: 3}
      propertyPath: m_LocalPosition.x
      value: 0
      objectReference: {fileID: 0}
    - target: {fileID: 5344230546021196627, guid: ddd818e3f9ed437459aae35190c40a20,
        type: 3}
      propertyPath: m_LocalPosition.y
      value: 0
      objectReference: {fileID: 0}
    - target: {fileID: 5344230546021196627, guid: ddd818e3f9ed437459aae35190c40a20,
        type: 3}
      propertyPath: m_LocalPosition.z
      value: 0
      objectReference: {fileID: 0}
    - target: {fileID: 5344230546021196627, guid: ddd818e3f9ed437459aae35190c40a20,
        type: 3}
      propertyPath: m_LocalRotation.x
      value: 0
      objectReference: {fileID: 0}
    - target: {fileID: 5344230546021196627, guid: ddd818e3f9ed437459aae35190c40a20,
        type: 3}
      propertyPath: m_LocalRotation.y
      value: 0
      objectReference: {fileID: 0}
    - target: {fileID: 5344230546021196627, guid: ddd818e3f9ed437459aae35190c40a20,
        type: 3}
      propertyPath: m_LocalRotation.z
      value: 0
      objectReference: {fileID: 0}
    - target: {fileID: 5344230546021196627, guid: ddd818e3f9ed437459aae35190c40a20,
        type: 3}
      propertyPath: m_LocalRotation.w
      value: 1
      objectReference: {fileID: 0}
    - target: {fileID: 5344230546021196627, guid: ddd818e3f9ed437459aae35190c40a20,
        type: 3}
      propertyPath: m_RootOrder
      value: 0
      objectReference: {fileID: 0}
    - target: {fileID: 5344230546021196627, guid: ddd818e3f9ed437459aae35190c40a20,
        type: 3}
      propertyPath: m_LocalEulerAnglesHint.x
      value: 0
      objectReference: {fileID: 0}
    - target: {fileID: 5344230546021196627, guid: ddd818e3f9ed437459aae35190c40a20,
        type: 3}
      propertyPath: m_LocalEulerAnglesHint.y
      value: 0
      objectReference: {fileID: 0}
    - target: {fileID: 5344230546021196627, guid: ddd818e3f9ed437459aae35190c40a20,
        type: 3}
      propertyPath: m_LocalEulerAnglesHint.z
      value: 0
      objectReference: {fileID: 0}
    - target: {fileID: 5341464295498483485, guid: ddd818e3f9ed437459aae35190c40a20,
        type: 3}
      propertyPath: m_TagString
      value: block
      objectReference: {fileID: 0}
    - target: {fileID: 5343263305631747827, guid: ddd818e3f9ed437459aae35190c40a20,
        type: 3}
      propertyPath: m_TagString
      value: block
      objectReference: {fileID: 0}
    - target: {fileID: 5341953870109659869, guid: ddd818e3f9ed437459aae35190c40a20,
        type: 3}
      propertyPath: m_Name
      value: casilla0
      objectReference: {fileID: 0}
    - target: {fileID: 5343299581674447631, guid: ddd818e3f9ed437459aae35190c40a20,
        type: 3}
      propertyPath: m_Name
      value: casilla03
      objectReference: {fileID: 0}
    - target: {fileID: 5342026673938478653, guid: ddd818e3f9ed437459aae35190c40a20,
        type: 3}
      propertyPath: m_Name
      value: casilla02
      objectReference: {fileID: 0}
    - target: {fileID: 5341979615504814685, guid: ddd818e3f9ed437459aae35190c40a20,
        type: 3}
      propertyPath: m_Name
      value: casilla0
      objectReference: {fileID: 0}
    - target: {fileID: 5341879367261469509, guid: ddd818e3f9ed437459aae35190c40a20,
        type: 3}
      propertyPath: m_Name
      value: casilla0
      objectReference: {fileID: 0}
    - target: {fileID: 5341552282282389519, guid: ddd818e3f9ed437459aae35190c40a20,
        type: 3}
      propertyPath: m_Name
      value: casilla0
      objectReference: {fileID: 0}
    - target: {fileID: 5341943743214873757, guid: ddd818e3f9ed437459aae35190c40a20,
        type: 3}
      propertyPath: m_Name
      value: casilla0
      objectReference: {fileID: 0}
    - target: {fileID: 5341538284248449259, guid: ddd818e3f9ed437459aae35190c40a20,
        type: 3}
      propertyPath: m_Name
      value: casilla0
      objectReference: {fileID: 0}
    - target: {fileID: 5341778900450289487, guid: ddd818e3f9ed437459aae35190c40a20,
        type: 3}
      propertyPath: m_Name
      value: casilla013
      objectReference: {fileID: 0}
    - target: {fileID: 5341889379031791637, guid: ddd818e3f9ed437459aae35190c40a20,
        type: 3}
      propertyPath: m_Name
      value: casilla0
      objectReference: {fileID: 0}
    - target: {fileID: 5341957598414500433, guid: ddd818e3f9ed437459aae35190c40a20,
        type: 3}
      propertyPath: m_Name
      value: casilla0
      objectReference: {fileID: 0}
    - target: {fileID: 5341820482484893001, guid: ddd818e3f9ed437459aae35190c40a20,
        type: 3}
      propertyPath: m_Name
      value: casilla0
      objectReference: {fileID: 0}
    - target: {fileID: 5341807954056485039, guid: ddd818e3f9ed437459aae35190c40a20,
        type: 3}
      propertyPath: m_Name
      value: casilla011
      objectReference: {fileID: 0}
    - target: {fileID: 5341403370440874987, guid: ddd818e3f9ed437459aae35190c40a20,
        type: 3}
      propertyPath: m_Name
      value: casilla0
      objectReference: {fileID: 0}
    - target: {fileID: 5341583676766142535, guid: ddd818e3f9ed437459aae35190c40a20,
        type: 3}
      propertyPath: m_Name
      value: casilla0
      objectReference: {fileID: 0}
    - target: {fileID: 5341854636701541031, guid: ddd818e3f9ed437459aae35190c40a20,
        type: 3}
      propertyPath: m_Name
      value: casilla07
      objectReference: {fileID: 0}
    - target: {fileID: 5341907080641191177, guid: ddd818e3f9ed437459aae35190c40a20,
        type: 3}
      propertyPath: m_Name
      value: casilla0
      objectReference: {fileID: 0}
    - target: {fileID: 5343305892119124405, guid: ddd818e3f9ed437459aae35190c40a20,
        type: 3}
      propertyPath: m_Name
      value: casilla10
      objectReference: {fileID: 0}
    - target: {fileID: 5341749342683472803, guid: ddd818e3f9ed437459aae35190c40a20,
        type: 3}
      propertyPath: m_Name
      value: casilla0
      objectReference: {fileID: 0}
    - target: {fileID: 5342390214081045711, guid: ddd818e3f9ed437459aae35190c40a20,
        type: 3}
      propertyPath: m_Name
      value: casilla0
      objectReference: {fileID: 0}
    - target: {fileID: 5341941229631775667, guid: ddd818e3f9ed437459aae35190c40a20,
        type: 3}
      propertyPath: m_Name
      value: casilla06
      objectReference: {fileID: 0}
    - target: {fileID: 5341533566174008985, guid: ddd818e3f9ed437459aae35190c40a20,
        type: 3}
      propertyPath: m_Name
      value: casilla0
      objectReference: {fileID: 0}
    - target: {fileID: 5343269354948329797, guid: ddd818e3f9ed437459aae35190c40a20,
        type: 3}
      propertyPath: m_Name
      value: casilla0
      objectReference: {fileID: 0}
    - target: {fileID: 5343246189393924195, guid: ddd818e3f9ed437459aae35190c40a20,
        type: 3}
      propertyPath: m_Name
      value: casilla0
      objectReference: {fileID: 0}
    - target: {fileID: 5341513931116854877, guid: ddd818e3f9ed437459aae35190c40a20,
        type: 3}
      propertyPath: m_Name
      value: casilla0
      objectReference: {fileID: 0}
    - target: {fileID: 5341522467978684055, guid: ddd818e3f9ed437459aae35190c40a20,
        type: 3}
      propertyPath: m_Name
      value: casilla0
      objectReference: {fileID: 0}
    - target: {fileID: 5341444583119076577, guid: ddd818e3f9ed437459aae35190c40a20,
        type: 3}
      propertyPath: m_Name
      value: casilla0
      objectReference: {fileID: 0}
    - target: {fileID: 5341310215189292175, guid: ddd818e3f9ed437459aae35190c40a20,
        type: 3}
      propertyPath: m_Name
      value: casilla0
      objectReference: {fileID: 0}
    - target: {fileID: 5341938991129136701, guid: ddd818e3f9ed437459aae35190c40a20,
        type: 3}
      propertyPath: m_Name
      value: casilla012
      objectReference: {fileID: 0}
    - target: {fileID: 5341499505295437677, guid: ddd818e3f9ed437459aae35190c40a20,
        type: 3}
      propertyPath: m_Name
      value: casilla04
      objectReference: {fileID: 0}
    - target: {fileID: 5342100103863488527, guid: ddd818e3f9ed437459aae35190c40a20,
        type: 3}
      propertyPath: m_Name
      value: casilla0
      objectReference: {fileID: 0}
    - target: {fileID: 5341563031434523833, guid: ddd818e3f9ed437459aae35190c40a20,
        type: 3}
      propertyPath: m_Name
      value: casilla0
      objectReference: {fileID: 0}
    - target: {fileID: 5342109337569391703, guid: ddd818e3f9ed437459aae35190c40a20,
        type: 3}
      propertyPath: m_Name
      value: casilla08
      objectReference: {fileID: 0}
    - target: {fileID: 5341460012841230639, guid: ddd818e3f9ed437459aae35190c40a20,
        type: 3}
      propertyPath: m_Name
      value: casilla0
      objectReference: {fileID: 0}
    - target: {fileID: 5341347239891808629, guid: ddd818e3f9ed437459aae35190c40a20,
        type: 3}
      propertyPath: m_Name
      value: casilla0
      objectReference: {fileID: 0}
    - target: {fileID: 5341546841750447941, guid: ddd818e3f9ed437459aae35190c40a20,
        type: 3}
      propertyPath: m_Name
      value: casilla01
      objectReference: {fileID: 0}
    - target: {fileID: 5341522520219113109, guid: ddd818e3f9ed437459aae35190c40a20,
        type: 3}
      propertyPath: m_Name
      value: casilla09
      objectReference: {fileID: 0}
    - target: {fileID: 5341504422956561767, guid: ddd818e3f9ed437459aae35190c40a20,
        type: 3}
      propertyPath: m_Name
      value: casilla0
      objectReference: {fileID: 0}
    - target: {fileID: 5342101495142924355, guid: ddd818e3f9ed437459aae35190c40a20,
        type: 3}
      propertyPath: m_Name
      value: casilla0
      objectReference: {fileID: 0}
    m_RemovedComponents: []
  m_SourcePrefab: {fileID: 100100000, guid: ddd818e3f9ed437459aae35190c40a20, type: 3}
